Final Field Gas Data Processing – Nibia
…
summarytable_plot_treatment_measurement <- filtered_fluxData %>%
  group_by(plot, treatment, wet_up_stage) %>%
  summarize(mean_CO2_flux = mean(FCO2_DRY_LIN, na.rm = TRUE),
            mean_CH4_flux = mean(FCH4_DRY_LIN, na.rm = TRUE),
            sd_CO2_flux = sd(FCO2_DRY_LIN, na.rm = TRUE),
            sd_CH4_flux = sd(FCH4_DRY_LIN, na.rm = TRUE),
            stderr_CO2_flux = sd(FCO2_DRY_LIN, na.rm = TRUE) / sqrt(n()),
            stderr_CH4_flux = sd(FCH4_DRY_LIN, na.rm = TRUE) / sqrt(n()),
            mean_soil_VWC = mean(SoilMoist_mean, na.rm = TRUE),
            sd_soil_VWC = sd(SoilMoist_mean, na.rm = TRUE),
            date_time = DateTime)

summarytable_plot_treatment_measurement

# A tibble: 279 × 12
# Groups:   plot, treatment, wet_up_stage [20]
   plot  treatment wet_up_stage mean_CO2_flux mean_CH4_flux sd_CO2_flux
   <chr> <chr>            <dbl>         <dbl>         <dbl>       <dbl>
 1 P1    C                    1          4.57        -0.615        2.17
 2 P1    C                    1          4.57        -0.615        2.17
 3 P1    C                    1          4.57        -0.615        2.17
 4 P1    C                    1          4.57        -0.615        2.17
 5 P1    C                    1          4.57        -0.615        2.17
 6 P1    C                    1          4.57        -0.615        2.17
 7 P1    C                    1          4.57        -0.615        2.17
 8 P1    C                    1          4.57        -0.615        2.17
 9 P1    C                    1          4.57        -0.615        2.17
10 P1    C                    1          4.57        -0.615        2.17
# ℹ 269 more rows
# ℹ 6 more variables: sd_CH4_flux <dbl>, stderr_CO2_flux <dbl>,
#   stderr_CH4_flux <dbl>, mean_soil_VWC <dbl>, sd_soil_VWC <dbl>,
#   date_time <dttm>
…
