Final Lab Gas Data Processing – Nibia
…
WETUP

# A tibble: 383 × 40
   Model        Intercept_CO2 TIME_CO2 TIME_CO2_pvalue TIME_CO2_r2 Intercept_CH4
   <chr>                <dbl>    <dbl>           <dbl>       <dbl>         <dbl>
 1 16-July-202…       -20591.    0.386       1.26e-143       0.996         1815.
 2 16-July-202…       -31123.    0.575       6.30e-148       0.998         2037.
 3 16-July-202…       -16281.    0.304       3.89e-152       0.997         1869.
 4 16-July-202…       -29950.    0.548       2.35e-184       0.999         2054.
 5 16-July-202…       -38356.    0.696       1.25e-200       1.00          2295.
 6 16-July-202…       -98395.    1.76        8.23e-162       0.998         2950.
 7 16-July-202…       -89227.    1.59        9.82e-118       0.989         1881.
 8 16-July-202…       -66885.    1.19        2.60e-135       0.994         -572.
 9 16-July-202…       -70078.    1.24        1.89e-133       0.994          640.
10 16-July-202…       -93345.    1.64        2.52e-116       0.995         -228.
# ℹ 373 more rows
# ℹ 34 more variables: TIME_CH4 <dbl>, TIME_CH4_pvalue <dbl>,
#   TIME_CH4_r2 <dbl>, Date <chr>, TimeLog <chr>, JarID <chr>, Time <chr>,
#   T.Air <dbl>, A.Pressure <dbl>, Volume <dbl>, Soil_jar <dbl>, Area <dbl>,
#   Label <chr>, STAGE_1 <chr>, STAGE_2 <chr>, STAGE_3 <chr>, one_hour <chr>,
#   two_min <chr>, four_hour <chr>, eight_hour <chr>, PRE_WET <chr>,
#   twenty_four_hour <chr>, finalC02_flux <dbl>, finalCH4_flux <dbl>, …
…
